<?xml version="1.0" encoding="UTF-8"?>
<svg class="feather feather-move" width="24" height="24" fill="none" stroke="currentColor" stroke-linecap="round" stroke-linejoin="round" stroke-width="2" version="1.1" viewBox="0 0 24 24" xmlns="http://www.w3.org/2000/svg">
 <polyline points="9 5 12 2 15 5"/>
 <polyline points="15 19 12 22 9 19"/>
 <line x1="12" x2="12" y1="2" y2="22"/>
</svg>
